^C:\USERS\JEN\SOURCE\REPOS\POKEMONFINALS\POKEMONFINALS\OBJ_PLAYER.CPP
/c /ZI /JMC /nologo /W3 /WX- /diagnostics:classic /sdl /Od /Oy- /D _MBCS /Gm- /EHsc /RTC1 /MDd /GS /fp:precise /permissive- /Zc:wchar_t /Zc:forScope /Zc:inline /Fo"DEBUG\\" /Fd"DEBUG\VC141.PDB" /Gd /TP /analyze- /FC C:\USERS\JEN\SOURCE\REPOS\POKEMONFINALS\POKEMONFINALS\OBJ_PLAYER.CPP
^C:\USERS\JEN\SOURCE\REPOS\POKEMONFINALS\POKEMONFINALS\OBJ_POKEMON.CPP
/c /ZI /JMC /nologo /W3 /WX- /diagnostics:classic /sdl /Od /Oy- /D _MBCS /Gm- /EHsc /RTC1 /MDd /GS /fp:precise /permissive- /Zc:wchar_t /Zc:forScope /Zc:inline /Fo"DEBUG\\" /Fd"DEBUG\VC141.PDB" /Gd /TP /analyze- /FC C:\USERS\JEN\SOURCE\REPOS\POKEMONFINALS\POKEMONFINALS\OBJ_POKEMON.CPP
^C:\USERS\JEN\SOURCE\REPOS\POKEMONFINALS\POKEMONFINALS\MAIN.CPP
/c /ZI /JMC /nologo /W3 /WX- /diagnostics:classic /sdl /Od /Oy- /D _MBCS /Gm- /EHsc /RTC1 /MDd /GS /fp:precise /permissive- /Zc:wchar_t /Zc:forScope /Zc:inline /Fo"DEBUG\\" /Fd"DEBUG\VC141.PDB" /Gd /TP /analyze- /FC C:\USERS\JEN\SOURCE\REPOS\POKEMONFINALS\POKEMONFINALS\MAIN.CPP
^C:\USERS\JEN\SOURCE\REPOS\POKEMONFINALS\POKEMONFINALS\OBJ_SYSTEM.CPP
/c /ZI /JMC /nologo /W3 /WX- /diagnostics:classic /sdl /Od /Oy- /D _MBCS /Gm- /EHsc /RTC1 /MDd /GS /fp:precise /permissive- /Zc:wchar_t /Zc:forScope /Zc:inline /Fo"DEBUG\\" /Fd"DEBUG\VC141.PDB" /Gd /TP /analyze- /FC C:\USERS\JEN\SOURCE\REPOS\POKEMONFINALS\POKEMONFINALS\OBJ_SYSTEM.CPP
^C:\USERS\JEN\DOCUMENTS\POKEMONFINALSEXAM\POKEMONFINALS\POKEMONFINALS\OBJ_PLAYER.CPP
/c /ZI /JMC /nologo /W3 /WX- /diagnostics:classic /sdl /Od /Oy- /D _MBCS /Gm- /EHsc /RTC1 /MDd /GS /fp:precise /permissive- /Zc:wchar_t /Zc:forScope /Zc:inline /Fo"DEBUG\\" /Fd"DEBUG\VC141.PDB" /Gd /TP /analyze- /FC C:\USERS\JEN\DOCUMENTS\POKEMONFINALSEXAM\POKEMONFINALS\POKEMONFINALS\OBJ_PLAYER.CPP
^C:\USERS\JEN\DOCUMENTS\POKEMONFINALSEXAM\POKEMONFINALS\POKEMONFINALS\OBJ_POKEMON.CPP
/c /ZI /JMC /nologo /W3 /WX- /diagnostics:classic /sdl /Od /Oy- /D _MBCS /Gm- /EHsc /RTC1 /MDd /GS /fp:precise /permissive- /Zc:wchar_t /Zc:forScope /Zc:inline /Fo"DEBUG\\" /Fd"DEBUG\VC141.PDB" /Gd /TP /analyze- /FC C:\USERS\JEN\DOCUMENTS\POKEMONFINALSEXAM\POKEMONFINALS\POKEMONFINALS\OBJ_POKEMON.CPP
^C:\USERS\JEN\DOCUMENTS\POKEMONFINALSEXAM\POKEMONFINALS\POKEMONFINALS\OBJ_SYSTEM.CPP
/c /ZI /JMC /nologo /W3 /WX- /diagnostics:classic /sdl /Od /Oy- /D _MBCS /Gm- /EHsc /RTC1 /MDd /GS /fp:precise /permissive- /Zc:wchar_t /Zc:forScope /Zc:inline /Fo"DEBUG\\" /Fd"DEBUG\VC141.PDB" /Gd /TP /analyze- /FC C:\USERS\JEN\DOCUMENTS\POKEMONFINALSEXAM\POKEMONFINALS\POKEMONFINALS\OBJ_SYSTEM.CPP
^C:\USERS\JEN\DOCUMENTS\POKEMONFINALSEXAM\POKEMONFINALS\POKEMONFINALS\MAIN.CPP
/c /ZI /JMC /nologo /W3 /WX- /diagnostics:classic /sdl /Od /Oy- /D _MBCS /Gm- /EHsc /RTC1 /MDd /GS /fp:precise /permissive- /Zc:wchar_t /Zc:forScope /Zc:inline /Fo"DEBUG\\" /Fd"DEBUG\VC141.PDB" /Gd /TP /analyze- /FC C:\USERS\JEN\DOCUMENTS\POKEMONFINALSEXAM\POKEMONFINALS\POKEMONFINALS\MAIN.CPP
